\relax 
\providecommand\zref@newlabel[2]{}
\providecommand\hyper@newdestlabel[2]{}
\@nameuse{bbl@beforestart}
\catcode `:\active 
\catcode `;\active 
\catcode `!\active 
\catcode `?\active 
\providecommand\HyperFirstAtBeginDocument{\AtBeginDocument}
\HyperFirstAtBeginDocument{\ifx\hyper@anchor\@undefined
\global\let\oldcontentsline\contentsline
\gdef\contentsline#1#2#3#4{\oldcontentsline{#1}{#2}{#3}}
\global\let\oldnewlabel\newlabel
\gdef\newlabel#1#2{\newlabelxx{#1}#2}
\gdef\newlabelxx#1#2#3#4#5#6{\oldnewlabel{#1}{{#2}{#3}}}
\AtEndDocument{\ifx\hyper@anchor\@undefined
\let\contentsline\oldcontentsline
\let\newlabel\oldnewlabel
\fi}
\fi}
\global\let\hyper@last\relax 
\gdef\HyperFirstAtBeginDocument#1{#1}
\providecommand\HyField@AuxAddToFields[1]{}
\providecommand\HyField@AuxAddToCoFields[2]{}
\bibstyle{unsrt}
\providecommand \oddpage@label [2]{}
\babel@aux{french}{}
\@writefile{toc}{\contentsline {chapter}{\numberline {1}G\'en\'eralit\'es sur les fonctions}{1}{chapter.1}\protected@file@percent }
\@writefile{lof}{\addvspace {10\p@ }}
\@writefile{lot}{\addvspace {10\p@ }}
\@writefile{loa}{\addvspace {10\p@ }}
\@writefile{toc}{\contentsline {section}{\numberline {I -\hspace  {-.4cm}}D\'efinir une fonction}{1}{section.1.1}\protected@file@percent }
\zref@newlabel{mdf@pagelabel-1}{\default{I -\hspace  {-.4cm}}\page{1}\abspage{1}\mdf@pagevalue{1}}
\@writefile{bcl}{\contentsline {bclogo}{\normalsize  D\'efinition 1}{1}{bclogocompteur.1}\protected@file@percent }
\pgfsyspdfmark {pgfid1}{1966080}{33695793}
\zref@newlabel{mdf@pagelabel-2}{\default{I -\hspace  {-.4cm}}\page{1}\abspage{1}\mdf@pagevalue{1}}
\@writefile{bcl}{\contentsline {bclogo}{ \small  Exemple 1\ }{1}{bclogocompteur.2}\protected@file@percent }
\pgfsyspdfmark {pgfid3}{2424832}{29824025}
\pgfsyspdfmark {pgfid2}{1966080}{29529113}
\zref@newlabel{mdf@pagelabel-3}{\default{I -\hspace  {-.4cm}}\page{1}\abspage{1}\mdf@pagevalue{1}}
\@writefile{bcl}{\contentsline {bclogo}{\normalsize  D\'efinition 2}{1}{bclogocompteur.3}\protected@file@percent }
\pgfsyspdfmark {pgfid4}{1966080}{25407240}
\zref@newlabel{mdf@pagelabel-4}{\default{I -\hspace  {-.4cm}}\page{1}\abspage{1}\mdf@pagevalue{1}}
\@writefile{bcl}{\contentsline {bclogo}{ \small  Exemple 2\ }{1}{bclogocompteur.4}\protected@file@percent }
\pgfsyspdfmark {pgfid6}{2424832}{17247625}
\pgfsyspdfmark {pgfid5}{1966080}{16952713}
\@writefile{toc}{\contentsline {section}{\numberline {II -\hspace  {-.4cm}}Repr\'esenter une fonction}{1}{section.1.2}\protected@file@percent }
\zref@newlabel{mdf@pagelabel-5}{\default{II -\hspace  {-.4cm}}\page{1}\abspage{1}\mdf@pagevalue{1}}
\@writefile{bcl}{\contentsline {bclogo}{\normalsize  D\'efinition 3}{1}{bclogocompteur.5}\protected@file@percent }
\pgfsyspdfmark {pgfid7}{1966080}{8198186}
\pgfsyspdfmark {pgfid8}{2301211}{5974153}
\zref@newlabel{mdf@pagelabel-6}{\default{II -\hspace  {-.4cm}}\page{2}\abspage{2}\mdf@pagevalue{2}}
\pgfsyspdfmark {pgfid9}{15585899}{47140117}
\pgfsyspdfmark {pgfid10}{20569629}{36078245}
\@writefile{bcl}{\contentsline {bclogo}{ \small  Exemple 3\ }{2}{bclogocompteur.6}\protected@file@percent }
\pgfsyspdfmark {pgfid12}{2424832}{34506949}
\pgfsyspdfmark {pgfid11}{1966080}{34212037}
\@writefile{toc}{\contentsline {section}{\numberline {III -\hspace  {-.4cm}}R\'esolutions graphiques d'\'equations et d'in\'equations}{2}{section.1.3}\protected@file@percent }
\@writefile{toc}{\contentsline {subsection}{\numberline {1.\hspace  {-.3cm}}\'Equations du type \begingroup \bfseries  \mathversion  {bold}$f (x) = k$\endgroup }{2}{subsection.1.3.1}\protected@file@percent }
\zref@newlabel{mdf@pagelabel-7}{\default{1.\hspace  {-.3cm}}\page{2}\abspage{2}\mdf@pagevalue{2}}
\@writefile{bcl}{\contentsline {bclogo}{\normalsize  Propri\'et\'e 1}{2}{bclogocompteur.7}\protected@file@percent }
\pgfsyspdfmark {pgfid13}{1966080}{17999412}
\pgfsyspdfmark {pgfid14}{28104363}{18545787}
\pgfsyspdfmark {pgfid15}{1928281}{16601133}
\zref@newlabel{mdf@pagelabel-8}{\default{1.\hspace  {-.3cm}}\page{2}\abspage{2}\mdf@pagevalue{2}}
\@writefile{bcl}{\contentsline {bclogo}{ \small  Exemple 4\ }{2}{bclogocompteur.8}\protected@file@percent }
\pgfsyspdfmark {pgfid17}{2424832}{5982689}
\pgfsyspdfmark {pgfid16}{1966080}{5687777}
\@writefile{toc}{\contentsline {subsection}{\numberline {2.\hspace  {-.3cm}}\'Equation du type \begingroup \bfseries  \mathversion  {bold}$f (x) = g (x)$\endgroup }{3}{subsection.1.3.2}\protected@file@percent }
\zref@newlabel{mdf@pagelabel-9}{\default{2.\hspace  {-.3cm}}\page{3}\abspage{3}\mdf@pagevalue{3}}
\@writefile{bcl}{\contentsline {bclogo}{\normalsize  Propri\'et\'e 2}{3}{bclogocompteur.9}\protected@file@percent }
\pgfsyspdfmark {pgfid18}{1966080}{45145030}
\pgfsyspdfmark {pgfid19}{28104363}{44118876}
\pgfsyspdfmark {pgfid20}{2301211}{42541922}
\@writefile{toc}{\contentsline {subsection}{\numberline {3.\hspace  {-.3cm}}In\'equations du type \begingroup \bfseries  \mathversion  {bold}$f (x) > k$\endgroup }{3}{subsection.1.3.3}\protected@file@percent }
\zref@newlabel{mdf@pagelabel-10}{\default{3.\hspace  {-.3cm}}\page{3}\abspage{3}\mdf@pagevalue{3}}
\@writefile{bcl}{\contentsline {bclogo}{\normalsize  Propri\'et\'e 3}{3}{bclogocompteur.10}\protected@file@percent }
\pgfsyspdfmark {pgfid21}{1966080}{31867564}
\pgfsyspdfmark {pgfid22}{28104363}{32413939}
\pgfsyspdfmark {pgfid23}{2301211}{30469285}
\zref@newlabel{mdf@pagelabel-11}{\default{3.\hspace  {-.3cm}}\page{3}\abspage{3}\mdf@pagevalue{3}}
\@writefile{bcl}{\contentsline {bclogo}{ \small  Exemple 5\ }{3}{bclogocompteur.11}\protected@file@percent }
\pgfsyspdfmark {pgfid25}{2424832}{26493490}
\pgfsyspdfmark {pgfid24}{1966080}{26198578}
\@writefile{toc}{\contentsline {subsection}{\numberline {4.\hspace  {-.3cm}}In\'equation du type \begingroup \bfseries  \mathversion  {bold}$f (x) < g (x)$\endgroup }{3}{subsection.1.3.4}\protected@file@percent }
\zref@newlabel{mdf@pagelabel-12}{\default{4.\hspace  {-.3cm}}\page{3}\abspage{3}\mdf@pagevalue{3}}
\@writefile{bcl}{\contentsline {bclogo}{\normalsize  Propri\'et\'e 4}{3}{bclogocompteur.12}\protected@file@percent }
\pgfsyspdfmark {pgfid26}{1966080}{16782355}
\pgfsyspdfmark {pgfid27}{28104363}{15756201}
\pgfsyspdfmark {pgfid28}{2301211}{14179247}
\@writefile{toc}{\contentsline {section}{\numberline {IV -\hspace  {-.4cm}}Fonction affine}{3}{section.1.4}\protected@file@percent }
\zref@newlabel{mdf@pagelabel-13}{\default{IV -\hspace  {-.4cm}}\page{3}\abspage{3}\mdf@pagevalue{3}}
\@writefile{bcl}{\contentsline {bclogo}{\normalsize  D\'efinition 4}{3}{bclogocompteur.13}\protected@file@percent }
\pgfsyspdfmark {pgfid29}{1966080}{4828680}
\pgfsyspdfmark {pgfid30}{2301211}{51453022}
\zref@newlabel{mdf@pagelabel-14}{\default{IV -\hspace  {-.4cm}}\page{4}\abspage{4}\mdf@pagevalue{4}}
\@writefile{bcl}{\contentsline {bclogo}{\normalsize  Propri\'et\'e 5}{4}{bclogocompteur.14}\protected@file@percent }
\pgfsyspdfmark {pgfid31}{1966080}{39087429}
\pgfsyspdfmark {pgfid32}{24355343}{41234179}
\zref@newlabel{mdf@pagelabel-15}{\default{IV -\hspace  {-.4cm}}\page{4}\abspage{4}\mdf@pagevalue{4}}
\@writefile{bcl}{\contentsline {bclogo}{\normalsize  Propri\'et\'e 6}{4}{bclogocompteur.15}\protected@file@percent }
\pgfsyspdfmark {pgfid33}{1966080}{33550215}
\zref@newlabel{mdf@pagelabel-16}{\default{IV -\hspace  {-.4cm}}\page{4}\abspage{4}\mdf@pagevalue{4}}
\pgfsyspdfmark {pgfid34}{8137430}{25625319}
\@writefile{bcl}{\contentsline {bclogo}{ \small  Exemple 6\ }{4}{bclogocompteur.16}\protected@file@percent }
\pgfsyspdfmark {pgfid36}{2424832}{21709511}
\pgfsyspdfmark {pgfid35}{1966080}{21414599}
\pgfsyspdfmark {pgfid37}{2301211}{20155597}
\zref@newlabel{mdf@pagelabel-17}{\default{IV -\hspace  {-.4cm}}\page{4}\abspage{4}\mdf@pagevalue{4}}
\@writefile{bcl}{\contentsline {bclogo}{ \small  Exemple 7\ }{4}{bclogocompteur.17}\protected@file@percent }
\pgfsyspdfmark {pgfid39}{2424832}{4220595}
\pgfsyspdfmark {pgfid38}{1966080}{3925683}
\@writefile{toc}{\contentsline {section}{\numberline {V -\hspace  {-.4cm}}Signe d'une fonction affine}{5}{section.1.5}\protected@file@percent }
\pgfsyspdfmark {pgfid40}{2301211}{49303438}
\zref@newlabel{mdf@pagelabel-18}{\default{V -\hspace  {-.4cm}}\page{5}\abspage{5}\mdf@pagevalue{5}}
\pgfsyspdfmark {pgfid41}{10550485}{37906415}
\pgfsyspdfmark {pgfid42}{11916461}{33083676}
\pgfsyspdfmark {pgfid43}{28176650}{37903968}
\pgfsyspdfmark {pgfid44}{29542639}{33081229}
\@writefile{bcl}{\contentsline {bclogo}{\normalsize  Propri\'et\'e 7}{5}{bclogocompteur.18}\protected@file@percent }
\pgfsyspdfmark {pgfid45}{1966080}{30275323}
\@writefile{toc}{\contentsline {section}{\numberline {VI -\hspace  {-.4cm}}Taux de variation d'une fonction}{5}{section.1.6}\protected@file@percent }
\zref@newlabel{mdf@pagelabel-19}{\default{VI -\hspace  {-.4cm}}\page{5}\abspage{5}\mdf@pagevalue{5}}
\@writefile{bcl}{\contentsline {bclogo}{\normalsize  D\'efinition 5}{5}{bclogocompteur.19}\protected@file@percent }
\pgfsyspdfmark {pgfid46}{1966080}{19678906}
\pgfsyspdfmark {pgfid47}{26934125}{20386467}
\zref@newlabel{mdf@pagelabel-20}{\default{VI -\hspace  {-.4cm}}\page{5}\abspage{5}\mdf@pagevalue{5}}
\@writefile{bcl}{\contentsline {bclogo}{ \small  Exemple 8\ }{5}{bclogocompteur.20}\protected@file@percent }
\pgfsyspdfmark {pgfid49}{2424832}{12303903}
\pgfsyspdfmark {pgfid48}{1966080}{12008991}
\pgfsyspdfmark {pgfid50}{1928281}{10059610}
\newlabel{LastPage}{{}{5}{}{page.5}{}}
\xdef\lastpage@lastpage{5}
\xdef\lastpage@lastpageHy{5}
